{
      "nodes": [
        { "@id":"http://fluidlog.com/node/0",
          "@type": "loglink:qui",
          "index":0,
          "label": "test qui",
          "hypertext": "",
          "neighbours":[]
          },
        { "@id":"http://fluidlog.com/node/1",
          "@type": "loglink:quoi",
          "index":1,
          "label": "test quoi",
          "hypertext": "",
          "neighbours":[]
          },
        { "@id":"http://fluidlog.com/node/2",
          "@type": "loglink:pourquoi",
          "index":2,
          "label": "test pourquoi",
          "hypertext": "",
          "neighbours":[]
          },
        { "@id":"http://fluidlog.com/node/3",
          "@type": "loglink:comment",
          "index":3,
          "label": "test comment",
          "hypertext": "",
          "neighbours":[]
          }
      ],
      "edges": [
        {"index":0, "@id" : "http://fluidlog.com/edge/0", "@type":"loglink:linkedto", "source": 0, "target": 1},
        {"index":1, "@id" : "http://fluidlog.com/edge/1", "@type":"loglink:linkedto", "source": 1, "target": 2},
        {"index":2, "@id" : "http://fluidlog.com/edge/2", "@type":"loglink:linkedto", "source": 1, "target": 3},
        {"index":3, "@id" : "http://fluidlog.com/edge/3", "@type":"loglink:linkedto", "source": 2, "target": 3}
      ]
}
