{
  "strokeWidth": 3,
  "strokeColor": "#CCC",
  "strokeColorError": "#FDAAAA",
  "strokeSelectedColor": "#999",
  "uriBase" : "http://fluidlog.com/edge/",
  "predicate" : "loglink:linkedto",
  "transitionDurationOverLinks" : 300,
  "label" : {
    "width" : 200,
    "height" : 80,
    "fillColor" : "#CCC",
    "strokeColor" : "#DDD",
    "curvesCorners" : 20,
    "blankNodeLabel" : "loglink:linkto"
  },
  "labelOnEdges" : true,
  "proportionalStroke" : [
    {"min" : 0, "max" : 100, "value" : 8},
    {"min" : 100, "max" : 500, "value" : 5},
    {"min" : 500, "max" : 1000, "value" : 3},
    {"min" : 1000, "max" : 5000, "value" : 2},
    {"min" : 5000, "max" : 100000, "value" : 1}]
}
